EESchema Schematic File Version 4
EELAYER 30 0
EELAYER END
$Descr A4 11693 8268
encoding utf-8
Sheet 1 1
Title ""
Date ""
Rev ""
Comp ""
Comment1 ""
Comment2 ""
Comment3 ""
Comment4 ""
$EndDescr
$Comp
L Device:R_Small R1
U 1 1 606EF1DC
P 3700 3100
F 0 "R1" H 3641 3054 50  0000 R CNN
F 1 "4,7k" H 3641 3145 50  0000 R CNN
F 2 "Resistor_SMD:R_0805_2012Metric" H 3700 3100 50  0001 C CNN
F 3 "~" H 3700 3100 50  0001 C CNN
	1    3700 3100
	-1   0    0    1   
$EndComp
$Comp
L Device:R_Small R2
U 1 1 606F0296
P 4350 3100
F 0 "R2" H 4291 3054 50  0000 R CNN
F 1 "100k" H 4291 3145 50  0000 R CNN
F 2 "Resistor_SMD:R_0805_2012Metric" H 4350 3100 50  0001 C CNN
F 3 "~" H 4350 3100 50  0001 C CNN
	1    4350 3100
	-1   0    0    1   
$EndComp
$Comp
L Device:R_Small R4
U 1 1 606F0663
P 4850 4400
F 0 "R4" H 4791 4354 50  0000 R CNN
F 1 "1k" H 4791 4445 50  0000 R CNN
F 2 "Resistor_SMD:R_0805_2012Metric" H 4850 4400 50  0001 C CNN
F 3 "~" H 4850 4400 50  0001 C CNN
	1    4850 4400
	-1   0    0    1   
$EndComp
$Comp
L power:+3.3V #PWR0101
U 1 1 606F0A74
P 4350 2800
F 0 "#PWR0101" H 4350 2650 50  0001 C CNN
F 1 "+3.3V" H 4365 2973 50  0000 C CNN
F 2 "" H 4350 2800 50  0001 C CNN
F 3 "" H 4350 2800 50  0001 C CNN
	1    4350 2800
	1    0    0    -1  
$EndComp
$Comp
L Device:C_Small C1
U 1 1 606F42C7
P 4100 3450
F 0 "C1" V 3871 3450 50  0000 C CNN
F 1 "100nF" V 3962 3450 50  0000 C CNN
F 2 "Capacitor_SMD:C_0805_2012Metric" H 4100 3450 50  0001 C CNN
F 3 "~" H 4100 3450 50  0001 C CNN
	1    4100 3450
	0    1    1    0   
$EndComp
$Comp
L Device:C_Small C3
U 1 1 606F50F6
P 4850 4600
F 0 "C3" H 4758 4554 50  0000 R CNN
F 1 "10uF" H 4758 4645 50  0000 R CNN
F 2 "Capacitor_SMD:C_0805_2012Metric" H 4850 4600 50  0001 C CNN
F 3 "~" H 4850 4600 50  0001 C CNN
	1    4850 4600
	-1   0    0    1   
$EndComp
$Comp
L Device:C_Small C5
U 1 1 606F5619
P 5800 3550
F 0 "C5" V 6029 3550 50  0000 C CNN
F 1 "10uF" V 5938 3550 50  0000 C CNN
F 2 "Capacitor_SMD:C_0805_2012Metric" H 5800 3550 50  0001 C CNN
F 3 "~" H 5800 3550 50  0001 C CNN
	1    5800 3550
	0    -1   -1   0   
$EndComp
$Comp
L Device:C_Small C4
U 1 1 606F5B6C
P 5750 2950
F 0 "C4" H 5842 2996 50  0000 L CNN
F 1 "100nF" H 5842 2905 50  0000 L CNN
F 2 "Capacitor_SMD:C_0805_2012Metric" H 5750 2950 50  0001 C CNN
F 3 "~" H 5750 2950 50  0001 C CNN
	1    5750 2950
	1    0    0    -1  
$EndComp
$Comp
L power:GND #PWR0102
U 1 1 606F6816
P 4850 4700
F 0 "#PWR0102" H 4850 4450 50  0001 C CNN
F 1 "GND" H 4855 4527 50  0000 C CNN
F 2 "" H 4850 4700 50  0001 C CNN
F 3 "" H 4850 4700 50  0001 C CNN
	1    4850 4700
	1    0    0    -1  
$EndComp
Wire Wire Line
	4200 3450 4350 3450
Connection ~ 4350 3450
Wire Wire Line
	4350 3450 4350 3200
Wire Wire Line
	3700 3200 3700 3450
Wire Wire Line
	3700 3450 4000 3450
Wire Wire Line
	5700 3550 5600 3550
$Comp
L Device:R_Small R5
U 1 1 606F899C
P 5150 4200
F 0 "R5" V 5346 4200 50  0000 C CNN
F 1 "100k" V 5255 4200 50  0000 C CNN
F 2 "Resistor_SMD:R_0805_2012Metric" H 5150 4200 50  0001 C CNN
F 3 "~" H 5150 4200 50  0001 C CNN
	1    5150 4200
	0    -1   -1   0   
$EndComp
Wire Wire Line
	4850 3650 4850 4200
$Comp
L Device:R_Small R3
U 1 1 606FBE38
P 4350 3800
F 0 "R3" H 4291 3754 50  0000 R CNN
F 1 "100k" H 4291 3845 50  0000 R CNN
F 2 "Resistor_SMD:R_0805_2012Metric" H 4350 3800 50  0001 C CNN
F 3 "~" H 4350 3800 50  0001 C CNN
	1    4350 3800
	-1   0    0    1   
$EndComp
Wire Wire Line
	4350 3700 4350 3450
$Comp
L power:GND #PWR0103
U 1 1 606FC7A3
P 4350 4050
F 0 "#PWR0103" H 4350 3800 50  0001 C CNN
F 1 "GND" H 4355 3877 50  0000 C CNN
F 2 "" H 4350 4050 50  0001 C CNN
F 3 "" H 4350 4050 50  0001 C CNN
	1    4350 4050
	1    0    0    -1  
$EndComp
Wire Wire Line
	4350 3900 4350 4050
Wire Wire Line
	5050 4200 4850 4200
Wire Wire Line
	4350 3450 4850 3450
Connection ~ 4850 4200
Wire Wire Line
	4850 4200 4850 4300
Wire Wire Line
	5250 4200 5600 4200
Wire Wire Line
	5600 4200 5600 3550
Connection ~ 5600 3550
Wire Wire Line
	5600 3550 5450 3550
$Comp
L power:+3.3V #PWR0104
U 1 1 606FD412
P 5750 2850
F 0 "#PWR0104" H 5750 2700 50  0001 C CNN
F 1 "+3.3V" H 5765 3023 50  0000 C CNN
F 2 "" H 5750 2850 50  0001 C CNN
F 3 "" H 5750 2850 50  0001 C CNN
	1    5750 2850
	1    0    0    -1  
$EndComp
$Comp
L power:GND #PWR0105
U 1 1 606FD728
P 5750 3050
F 0 "#PWR0105" H 5750 2800 50  0001 C CNN
F 1 "GND" H 5755 2877 50  0000 C CNN
F 2 "" H 5750 3050 50  0001 C CNN
F 3 "" H 5750 3050 50  0001 C CNN
	1    5750 3050
	1    0    0    -1  
$EndComp
$Comp
L Device:C_Small C2
U 1 1 606FDBC8
P 7610 3510
F 0 "C2" H 7702 3556 50  0000 L CNN
F 1 "10uF" H 7702 3465 50  0000 L CNN
F 2 "Capacitor_SMD:C_0805_2012Metric" H 7610 3510 50  0001 C CNN
F 3 "~" H 7610 3510 50  0001 C CNN
	1    7610 3510
	1    0    0    -1  
$EndComp
$Comp
L Connector_Generic:Conn_01x02 J1
U 1 1 606FED53
P 3500 3450
F 0 "J1" H 3418 3575 50  0000 C CNN
F 1 "Conn_01x02" H 3418 3576 50  0001 C CNN
F 2 "Connector_PinHeader_2.54mm:PinHeader_1x02_P2.54mm_Vertical" H 3500 3450 50  0001 C CNN
F 3 "~" H 3500 3450 50  0001 C CNN
	1    3500 3450
	-1   0    0    -1  
$EndComp
Connection ~ 3700 3450
$Comp
L Connector_Generic:Conn_01x04 J2
U 1 1 606FF471
P 7250 3550
F 0 "J2" H 7330 3496 50  0000 L CNN
F 1 "Conn_01x04" H 7330 3451 50  0001 L CNN
F 2 "Connector_PinHeader_2.54mm:PinHeader_1x04_P2.54mm_Vertical" H 7250 3550 50  0001 C CNN
F 3 "~" H 7250 3550 50  0001 C CNN
	1    7250 3550
	1    0    0    1   
$EndComp
$Comp
L power:GND #PWR0108
U 1 1 606FFEC1
P 3700 3550
F 0 "#PWR0108" H 3700 3300 50  0001 C CNN
F 1 "GND" H 3705 3377 50  0000 C CNN
F 2 "" H 3700 3550 50  0001 C CNN
F 3 "" H 3700 3550 50  0001 C CNN
	1    3700 3550
	1    0    0    -1  
$EndComp
$Comp
L power:GND #PWR0109
U 1 1 6070D0C2
P 5050 3850
F 0 "#PWR0109" H 5050 3600 50  0001 C CNN
F 1 "GND" H 5055 3677 50  0000 C CNN
F 2 "" H 5050 3850 50  0001 C CNN
F 3 "" H 5050 3850 50  0001 C CNN
	1    5050 3850
	1    0    0    -1  
$EndComp
$Comp
L power:+3.3V #PWR0110
U 1 1 6070D43C
P 5050 3250
F 0 "#PWR0110" H 5050 3100 50  0001 C CNN
F 1 "+3.3V" H 5065 3423 50  0000 C CNN
F 2 "" H 5050 3250 50  0001 C CNN
F 3 "" H 5050 3250 50  0001 C CNN
	1    5050 3250
	1    0    0    -1  
$EndComp
$Comp
L Device:R_Small R6
U 1 1 606FC88D
P 3700 2550
F 0 "R6" H 3641 2504 50  0000 R CNN
F 1 "4,7k" H 3641 2595 50  0000 R CNN
F 2 "Resistor_SMD:R_0805_2012Metric" H 3700 2550 50  0001 C CNN
F 3 "~" H 3700 2550 50  0001 C CNN
	1    3700 2550
	-1   0    0    1   
$EndComp
$Comp
L power:+3.3V #PWR01
U 1 1 606FCB26
P 3700 2350
F 0 "#PWR01" H 3700 2200 50  0001 C CNN
F 1 "+3.3V" H 3715 2523 50  0000 C CNN
F 2 "" H 3700 2350 50  0001 C CNN
F 3 "" H 3700 2350 50  0001 C CNN
	1    3700 2350
	1    0    0    -1  
$EndComp
Wire Wire Line
	3700 2350 3700 2450
Wire Wire Line
	3700 2650 3700 2700
$Comp
L Device:C_Small C6
U 1 1 606FD7E1
P 4000 2800
F 0 "C6" H 4092 2846 50  0000 L CNN
F 1 "10uF" H 4092 2755 50  0000 L CNN
F 2 "Capacitor_SMD:C_0805_2012Metric" H 4000 2800 50  0001 C CNN
F 3 "~" H 4000 2800 50  0001 C CNN
	1    4000 2800
	1    0    0    -1  
$EndComp
$Comp
L power:GND #PWR02
U 1 1 606FDBF3
P 4000 2900
F 0 "#PWR02" H 4000 2650 50  0001 C CNN
F 1 "GND" H 4005 2727 50  0000 C CNN
F 2 "" H 4000 2900 50  0001 C CNN
F 3 "" H 4000 2900 50  0001 C CNN
	1    4000 2900
	1    0    0    -1  
$EndComp
Wire Wire Line
	4000 2700 3700 2700
Connection ~ 3700 2700
Wire Wire Line
	3700 2700 3700 3000
$Comp
L Device:R_Small R7
U 1 1 607000F6
P 6410 3870
F 0 "R7" H 6351 3824 50  0000 R CNN
F 1 "1k" H 6351 3915 50  0000 R CNN
F 2 "Resistor_SMD:R_0805_2012Metric" H 6410 3870 50  0001 C CNN
F 3 "~" H 6410 3870 50  0001 C CNN
	1    6410 3870
	-1   0    0    1   
$EndComp
$Comp
L power:GND #PWR03
U 1 1 60700538
P 6410 3970
F 0 "#PWR03" H 6410 3720 50  0001 C CNN
F 1 "GND" H 6415 3797 50  0000 C CNN
F 2 "" H 6410 3970 50  0001 C CNN
F 3 "" H 6410 3970 50  0001 C CNN
	1    6410 3970
	1    0    0    -1  
$EndComp
Wire Wire Line
	4350 2800 4350 3000
Text Label 3750 3450 0    50   ~ 0
MIC+
Text Label 4550 3450 0    50   ~ 0
OP+
Text Label 4850 4200 0    50   ~ 0
OP-
$Comp
L Amplifier_Operational:TL071 U1
U 1 1 60718138
P 5150 3550
F 0 "U1" H 5150 3850 50  0000 L CNN
F 1 "TL071" H 5150 3750 50  0000 L CNN
F 2 "Package_SO:SO-8_3.9x4.9mm_P1.27mm" H 5200 3600 50  0001 C CNN
F 3 "http://www.ti.com/lit/ds/symlink/tl071.pdf" H 5300 3700 50  0001 C CNN
	1    5150 3550
	1    0    0    -1  
$EndComp
Wire Wire Line
	5900 3550 5910 3550
$Comp
L Device:R_Small R8
U 1 1 607290CA
P 6010 3550
F 0 "R8" V 6080 3630 50  0000 R CNN
F 1 "1k" V 5930 3630 50  0000 R CNN
F 2 "Resistor_SMD:R_0805_2012Metric" H 6010 3550 50  0001 C CNN
F 3 "~" H 6010 3550 50  0001 C CNN
	1    6010 3550
	0    -1   -1   0   
$EndComp
Text Label 6160 3550 0    50   ~ 0
Wyjście
$Comp
L power:+3.3V #PWR0111
U 1 1 6070FBDB
P 7000 3200
F 0 "#PWR0111" H 7000 3050 50  0001 C CNN
F 1 "+3.3V" H 7000 3350 50  0000 C CNN
F 2 "" H 7000 3200 50  0001 C CNN
F 3 "" H 7000 3200 50  0001 C CNN
	1    7000 3200
	1    0    0    -1  
$EndComp
Wire Wire Line
	6110 3550 6410 3550
Connection ~ 6410 3550
$Comp
L power:GND #PWR0112
U 1 1 60718D6F
P 7000 3790
F 0 "#PWR0112" H 7000 3540 50  0001 C CNN
F 1 "GND" H 7000 3640 50  0000 C CNN
F 2 "" H 7000 3790 50  0001 C CNN
F 3 "" H 7000 3790 50  0001 C CNN
	1    7000 3790
	1    0    0    -1  
$EndComp
Wire Wire Line
	6410 3550 6410 3770
Wire Wire Line
	6410 3550 7050 3550
Wire Wire Line
	7050 3450 7000 3450
Wire Wire Line
	7000 3450 7000 3650
Wire Wire Line
	7050 3350 7000 3350
Wire Wire Line
	7000 3350 7000 3200
Wire Wire Line
	7000 3200 7610 3200
Wire Wire Line
	7610 3200 7610 3410
Connection ~ 7000 3200
Wire Wire Line
	7050 3650 7000 3650
Connection ~ 7000 3650
Wire Wire Line
	7000 3650 7000 3790
Wire Wire Line
	7000 3790 7610 3790
Wire Wire Line
	7610 3790 7610 3610
Connection ~ 7000 3790
$EndSCHEMATC
